export ABW_MD5SUM := 9317e967c8fa8ff50e049744c4b33c87
export ABW_TARBALL := libabw-0.1.0.tar.bz2
export APACHE_COMMONS_CODEC_TARBALL := $(if $(filter TRUE,$(HAVE_JAVA6))\
  ,048751f3271906db5126ab76870444c4-commons-codec-1.9-src.zip\
  ,2e482c7567908d334785ce7d69ddfff7-commons-codec-1.6-src.tar.gz\
)
export APACHE_COMMONS_HTTPCLIENT_TARBALL := 2c9b0f83ed5890af02c0df1c1776f39b-commons-httpclient-3.1-src.tar.gz
export APACHE_COMMONS_LANG_TARBALL := $(if $(filter TRUE,$(HAVE_JAVA6))\
  ,8ab049135b2d15313da5d9f0656894a1-commons-lang3-3.3.1-src.tar.gz\
  ,625ff5f2f968dd908bca43c9469d6e6b-commons-lang-2.4-src.tar.gz\
)
export APACHE_COMMONS_LOGGING_MD5SUM := ce977548f1cbf46918e93cd38ac35163
export APACHE_COMMONS_LOGGING_TARBALL := commons-logging-1.2-src.tar.gz
export APR_MD5SUM := eff9d741b0999a9bbab96862dd2a2a3d
export APR_TARBALL := apr-1.4.8.tar.gz
export APR_UTIL_MD5SUM := 71a11d037240b292f824ba1eb537b4e3
export APR_UTIL_TARBALL := apr-util-1.5.3.tar.gz
export BOOST_TARBALL := d6eef4b4cacb2183f2bf265a5a03a354-boost_1_55_0.tar.bz2
export BSH_TARBALL := ea570af93c284aa9e5621cd563f54f4d-bsh-2.0b1-src.tar.gz
export CAIRO_TARBALL := f101a9e88b783337b20b2e26dfd26d5f-cairo-1.10.2.tar.gz
export CDR_MD5SUM := 0e2f56934c8872ec4a254cd4bb1d7cf6
export CDR_TARBALL := libcdr-0.1.0.tar.bz2
export CLUCENE_TARBALL := 48d647fbd8ef8889e5a7f422c1bfda94-clucene-core-2.3.3.4.tar.gz
export CMIS_TARBALL := 22f8a85daf4a012180322e1f52a7563b-libcmis-0.4.1.tar.gz
export COINMP_MD5SUM := 1cce53bf4b40ae29790d2c5c9f8b1129
export COINMP_TARBALL := CoinMP-1.7.6.tgz
export COLLADA2GLTF_TARBALL := 4b87018f7fff1d054939d19920b751a0-collada2gltf-master-cb1d97788a.tar.bz2
export CPPUNIT_MD5SUM := d1c6bdd5a76c66d2c38331e2d287bc01
export CPPUNIT_TARBALL := cppunit-1.13.2.tar.gz
export CT2N_TARBALL := 451ccf439a36a568653b024534669971-ConvertTextToNumber-1.3.2.oxt
export CURL_MD5SUM := e6d1f9d1b59da5062109ffe14e0569a4
export CURL_TARBALL := curl-7.36.0.tar.bz2
export DBGHELP_DLL := 13fbc2e8b37ddf28181dd6d8081c2b8e-dbghelp.dll
export EBOOK_MD5SUM := c25a881d21abc5b4da19205db513cc22
export EBOOK_TARBALL := libe-book-0.1.1.tar.bz2
export EPM_TARBALL := 3ade8cfe7e59ca8e65052644fed9fca4-epm-3.7.tar.gz
export ETONYEK_MD5SUM := 805f941b06448212a988cb65f0691a7a
export ETONYEK_TARBALL := libetonyek-0.1.1.tar.bz2
export EXPAT_TARBALL := dd7dab7a5fea97d2a6a43f511449b7cd-expat-2.1.0.tar.gz
export FIREBIRD_MD5SUM := 21154d2004e025c8a3666625b0357bb5
export FIREBIRD_TARBALL := Firebird-2.5.2.26540-0.tar.bz2
# FIREBIRD_MD5SUM := b259c2d1c60a03bd104108405ae990a7
# export FIREBIRD_TARBALL := Firebird-3.0-alpha1-20130302.tar.gz
export FONTCONFIG_TARBALL := 77e15a92006ddc2adbb06f840d591c0e-fontconfig-2.8.0.tar.gz
export FONT_CALADEA_TARBALL := 368f114c078f94214a308a74c7e991bc-crosextrafonts-20130214.tar.gz
export FONT_CARLITO_TARBALL := c74b7223abe75949b4af367942d96c7a-crosextrafonts-carlito-20130920.tar.gz
export FONT_DEJAVU_TARBALL := a4e565e220b5de082c23995e256e3c12-dejavu-fonts-ttf-2.34.zip
export FONT_GENTIUM_TARBALL := 35efabc239af896dfb79be7ebdd6e6b9-gentiumbasic-fonts-1.10.zip
export FONT_LIBERATION_NARROW_TARBALL := 134d8262145fc793c6af494dcace3e71-liberation-fonts-ttf-1.07.4.tar.gz
export FONT_LIBERATION_TARBALL := 5c781723a0d9ed6188960defba8e91cf-liberation-fonts-ttf-2.00.1.tar.gz
export FONT_LINLIBERTINEG_TARBALL := e7a384790b13c29113e22e596ade9687-LinLibertineG-20120116.zip
export FONT_OPENSANS_TARBALL := 7a15edea7d415ac5150ea403e27401fd-open-sans-font-ttf-1.10.tar.gz
export FONT_PTSERIF_TARBALL := c3c1a8ba7452950636e871d25020ce0d-pt-serif-font-1.0000W.tar.gz
export FONT_SOURCECODE_TARBALL := 0279a21fab6f245e85a6f85fea54f511-source-code-font-1.009.tar.gz
export FONT_SOURCESANS_TARBALL := edc4d741888bc0d38e32dbaa17149596-source-sans-pro-2.010R-ro-1.065R-it.tar.gz
export FREEHAND_MD5SUM := 5f029fef73e42a2c2ae4524a7513f97d
export FREEHAND_TARBALL := libfreehand-0.1.0.tar.bz2
export FREETYPE_TARBALL := dbf2caca1d3afd410a29217a9809d397-freetype-2.4.8.tar.bz2
export GLEW_TARBALL := 594eb47b4b1210e25438d51825404d5a-glew-1.10.0.zip
export GLM_TARBALL := bae83fa5dc7f081768daace6e199adc3-glm-0.9.4.6-libreoffice.zip
export GRAPHITE_MD5SUM := 2ef839348fe28e3b923bf8cced440227
export GRAPHITE_TARBALL := graphite2-1.2.4.tgz
export HARFBUZZ_MD5SUM := a4a9b548577e2ee22f0887937da5fd6c
export HARFBUZZ_TARBALL := harfbuzz-0.9.23.tar.bz2
export HSQLDB_TARBALL := 17410483b5b5f267aa18b7e00b65e6e0-hsqldb_1_8_0.zip
export HUNSPELL_TARBALL := 4967da60b23413604c9e563beacc63b4-hunspell-1.3.3.tar.gz
export HYPHEN_TARBALL := 5ade6ae2a99bc1e9e57031ca88d36dad-hyphen-2.8.8.tar.gz
export ICU_TARBALL := b73baa6fbdfef197608d1f69300919b9-icu4c-53_1-src.tgz
export JFREEREPORT_FLOW_ENGINE_TARBALL := ba2930200c9f019c2d93a8c88c651a0f-flow-engine-0.9.4.zip
export JFREEREPORT_FLUTE_TARBALL := d8bd5eed178db6e2b18eeed243f85aa8-flute-1.1.6.zip
export JFREEREPORT_LIBBASE_TARBALL := eeb2c7ddf0d302fba4bfc6e97eac9624-libbase-1.1.6.zip
export JFREEREPORT_LIBFONTS_TARBALL := 3bdf40c0d199af31923e900d082ca2dd-libfonts-1.1.6.zip
export JFREEREPORT_LIBFORMULA_TARBALL := 3404ab6b1792ae5f16bbd603bd1e1d03-libformula-1.1.7.zip
export JFREEREPORT_LIBLAYOUT_TARBALL := db60e4fde8dd6d6807523deb71ee34dc-liblayout-0.2.10.zip
export JFREEREPORT_LIBLOADER_TARBALL := 97b2d4dba862397f446b217e2b623e71-libloader-1.1.6.zip
export JFREEREPORT_LIBREPOSITORY_TARBALL := 8ce2fcd72becf06c41f7201d15373ed9-librepository-1.1.6.zip
export JFREEREPORT_LIBSERIALIZER_TARBALL := f94d9870737518e3b597f9265f4e9803-libserializer-1.1.6.zip
export JFREEREPORT_LIBXML_TARBALL := ace6ab49184e329db254e454a010f56d-libxml-1.1.7.zip
export JFREEREPORT_SAC_TARBALL := 39bb3fcea1514f1369fcfc87542390fd-sacjava-1.3.zip
export JPEG_MD5SUM := 3353992aecaee1805ef4109aadd433e7
export JPEG_TARBALL := jpegsrc.v9a.tar.gz
export JPEG_TURBO_MD5SUM := 2c3a68129dac443a72815ff5bb374b05
export JPEG_TURBO_TARBALL := libjpeg-turbo-1.3.1.tar.gz
export LANGTAGREG_MD5SUM := 49c94710f7858b1969d74ff72e6aac84
export LANGTAGREG_TARBALL := language-subtag-registry-2014-04-10.tar.bz2
export LANGUAGETOOL_TARBALL := b63e6340a02ff1cacfeadb2c42286161-JLanguageTool-1.7.0.tar.bz2
export LCMS2_MD5SUM := f4c08d38ceade4a664ebff7228910a33
export LCMS2_TARBALL := lcms2-2.6.tar.gz
export LIBATOMIC_OPS_MD5SUM := c0b86562d5aa40761a87134f83e6adcf
export LIBATOMIC_OPS_TARBALL := libatomic_ops-7_2d.zip
export LIBEOT_MD5SUM := aa24f5dd2a2992f4a116aa72af817548
export LIBEOT_TARBALL := libeot-0.01.tar.bz2
export LIBEXTTEXTCAT_TARBALL := 10d61fbaa6a06348823651b1bd7940fe-libexttextcat-3.4.4.tar.bz2
export LIBGLTF_MD5SUM := d63a9f47ab048f5009d90693d6aa6424
export LIBGLTF_TARBALL := libgltf-0.0.2.tar.bz2
export LIBLANGTAG_TARBALL := 36271d3fa0d9dec1632029b6d7aac925-liblangtag-0.5.1.tar.bz2
export LIBXMLSEC_TARBALL := 1f24ab1d39f4a51faf22244c94a6203f-xmlsec1-1.2.14.tar.gz
export LIBXML_TARBALL := 9c0cfef285d5c4a5c80d00904ddab380-libxml2-2.9.1.tar.gz
export LIBXSLT_TARBALL := 9667bf6f9310b957254fdcf6596600b7-libxslt-1.1.28.tar.gz
export LPSOLVE_TARBALL := 26b3e95ddf3d9c077c480ea45874b3b8-lp_solve_5.5.tar.gz
export MARIADB_TARBALL := a233181e03d3c307668b4c722d881661-mariadb_client-2.0.0-src.tar.gz
export MDDS_TARBALL := 896272c1a9e396b871cb4dffbd694503-mdds_0.11.1.tar.bz2
export MSPUB_MD5SUM := 1d489c4932109e72495b1df8b69e5f11
export MSPUB_TARBALL := libmspub-0.1.1.tar.bz2
export MWAW_MD5SUM := 19b879c2a27251db6fb274d6c585d488
export MWAW_TARBALL := libmwaw-0.3.3.tar.bz2
export MYSQLCPPCONN_TARBALL := 7239a4430efd4d0189c4f24df67f08e5-mysql-connector-c++-1.1.4.tar.gz
export MYTHES_TARBALL := a8c2c5b8f09e7ede322d5c602ff6a4b6-mythes-1.2.4.tar.gz
export NEON_TARBALL := ff369e69ef0f0143beb5626164e87ae2-neon-0.29.5.tar.gz
export NSS_TARBALL := b279551b7638d0e36d1199548124c247-nss-3.16.5-with-nspr-4.10.6.tar.gz
export ODFGEN_MD5SUM := c22c83c17cda0754382ada4e116594b7
export ODFGEN_TARBALL := libodfgen-0.1.1.tar.bz2
export OPENCOLLADA_MD5SUM := 4ca8a6ef0afeefc864e9ef21b9f14bd6
export OPENCOLLADA_TARBALL := OpenCOLLADA-master-6509aa13af.tar.bz2
export OPENLDAP_TARBALL := 804c6cb5698db30b75ad0ff1c25baefd-openldap-2.4.31.tgz
export OPENSSL_MD5SUM := f7175c9cd3c39bb1907ac8bba9df8ed3
export OPENSSL_TARBALL := openssl-1.0.1j.tar.gz
export ORCUS_TARBALL := 7681383be6ce489d84c1c74f4e7f9643-liborcus-0.7.0.tar.bz2
export PAGEMAKER_MD5SUM := 3572175bd4e7d134f26b6762d322a1d1
export PAGEMAKER_TARBALL := libpagemaker-0.0.1.tar.bz2
export PIXMAN_TARBALL := c63f411b3ad147db2bcce1bf262a0e02-pixman-0.24.4.tar.bz2
export PNG_MD5SUM := 5266905cef49d1224437465ad4d67fd9
export PNG_TARBALL := libpng-1.5.18.tar.gz
export POPPLER_MD5SUM := 35c0660065d023365e9854c13e289d12
export POPPLER_TARBALL := poppler-0.26.4.tar.gz
export POSTGRESQL_TARBALL := c0b4799ea9850eae3ead14f0a60e9418-postgresql-9.2.1.tar.bz2
export PYTHON_MD5SUM := 803a75927f8f241ca78633890c798021
export PYTHON_TARBALL := Python-3.3.5.tgz
export RAPTOR_TARBALL := 4ceb9316488b0ea01acf011023cf7fff-raptor2-2.0.9.tar.gz
export RASQAL_TARBALL := b12c5f9cfdb6b04efce5a4a186b8416b-rasqal-0.9.30.tar.gz
export REDLAND_TARBALL := 32f8e1417a64d3c6f2c727f9053f55ea-redland-1.0.16.tar.gz
export REVENGE_MD5SUM := 69c367c6b0a360411965a1c409a0b6c1
export REVENGE_TARBALL := librevenge-0.0.1.tar.bz2
export RHINO_TARBALL := 798b2ffdc8bcfe7bca2cf92b62caf685-rhino1_5R5.zip
export SERF_MD5SUM := 4f8e76c9c6567aee1d66aba49f76a58b
export SERF_TARBALL := serf-1.2.1.tar.bz2
export SWING_TARBALL := 35c94d2df8893241173de1d16b6034c0-swingExSrc.zip
export UCPP_TARBALL := 0168229624cfac409e766913506961a8-ucpp-1.3.2.tar.gz
export VIGRA_TARBALL := d62650a6f908e85643e557a236ea989c-vigra1.6.0.tar.gz
export VISIO_MD5SUM := 931588332ba44682c9cd5eefbd358ab4
export VISIO_TARBALL := libvisio-0.1.0.tar.bz2
export WPD_MD5SUM := 0773d79a1f240ef9f4f20242b13c5bb7
export WPD_TARBALL := libwpd-0.10.0.tar.bz2
export WPG_MD5SUM := 17da9770cb8b317b7633f9807b32b71a
export WPG_TARBALL := libwpg-0.3.0.tar.bz2
export WPS_MD5SUM := d4d77d08b9048bae3b8ec8df11f80efd
export WPS_TARBALL := libwps-0.3.0.tar.bz2
export XSLTML_TARBALL := a7983f859eafb2677d7ff386a023bc40-xsltml_2.1.2.zip
export ZLIB_MD5SUM := 44d667c142d7cda120332623eab69f40
export ZLIB_TARBALL := zlib-1.2.8.tar.gz

export MOZ_ZIP_INC := $(OS)$(COM)$(if $(filter INTEL,$(CPUNAME)),I,X)inc.zip
export MOZ_ZIP_LIB := $(OS)$(COM)$(if $(filter INTEL,$(CPUNAME)),I,X)lib.zip
export MOZ_ZIP_RUNTIME := $(OS)$(COM)$(if $(filter INTEL,$(CPUNAME)),I,X)runtime.zip
